R for Data Science
…
Exercises

Here let's pull together everything to tackle a realistic data tidying problem. The tidyr::who dataset contains tuberculosis(TB) cases broken down by year, country, age, gender, and diagnosis method. There's a wealth of epidemiological information in this dataset, but it's challenging to work with the data in the form that it's provided:

> who
# A tibble: 7,240 x 60
   country iso2  iso3   year new_sp_m014 new_sp_m1524 new_sp_m2534
   <chr>   <chr> <chr> <int>       <int>        <int>        <int>
 1 Afghan AF    AFG    1980          NA           NA           NA
 2 Afghan AF    AFG    1981          NA           NA           NA
 3 Afghan AF    AFG    1982          NA           NA           NA
 4 Afghan AF    AFG    1983          NA           NA           NA
 5 Afghan AF    AFG    1984          NA           NA           NA
 6 Afghan AF    AFG    1985          NA           NA           NA
 7 Afghan AF    AFG    1986          NA           NA           NA
 8 Afghan AF    AFG    1987          NA           NA           NA
 9 Afghan AF    AFG    1988          NA           NA           NA
10 Afghan AF    AFG    1989          NA           NA           NA
#  with 7,230 more rows, and 53 more variables: new_sp_m3544 <int>,
#   new_sp_m4554 <int>, new_sp_m5564 <int>, new_sp_m65 <int>,
#   new_sp_f014 <int>, new_sp_f1524 <int>, new_sp_f2534 <int>,
#   new_sp_f3544 <int>, new_sp_f4554 <int>, new_sp_f5564 <int>,
#   new_sp_f65 <int>, new_sn_m014 <int>, new_sn_m1524 <int>,
#   new_sn_m2534 <int>, new_sn_m3544 <int>, new_sn_m4554 <int>,
#   new_sn_m5564 <int>, new_sn_m65 <int>, new_sn_f014 <int>,
#   new_sn_f1524 <int>, new_sn_f2534 <int>, new_sn_f3544 <int>,
#   new_sn_f4554 <int>, new_sn_f5564 <int>, new_sn_f65 <int>,
…
The sixth letter gives the sex of TB patients. The dataset groups cases by males(m) and females(f).

The remaining numbers give the age group(e.g., 014=0-14 years old,1524=15-24 years old,65=65 or older)

Solution

> who %>%
+   gather(code, value, new_sp_m014:newrel_f65, na.rm = TRUE) %>%
+   mutate(
+     code = stringr::str_replace(code, "newrel", "new_rel")
+   ) %>%
+   separate(code, c("new","var","sexage")) %>%
+   select(-new,-iso2,-iso3) %>%
+   separate(sexage, c("sex", "age"), sep = 1)
# A tibble: 76,046 x 6
   country      year var   sex   age   value
   <chr>       <int> <chr> <chr> <chr> <int>
 1 Afghanistan  1997 sp    m     014       0
 2 Afghanistan  1998 sp    m     014      30
 3 Afghanistan  1999 sp    m     014       8
 4 Afghanistan  2000 sp    m     014      52
 5 Afghanistan  2001 sp    m     014     129
 6 Afghanistan  2002 sp    m     014      90
 7 Afghanistan  2003 sp    m     014     127
 8 Afghanistan  2004 sp    m     014     139
 9 Afghanistan  2005 sp    m     014     151
10 Afghanistan  2006 sp    m     014     193
#  with 76,036 more rows
…
